DiGraph G {
 5 [label="4 (5) - 1.000000"];
 4 [label="3 (4) - 1.000000"];
 3 [label="5 (3) - 1.000000"];
 2 [label="2 (2) - 1.000000"];
 1 [label="1 (1) - 1.000000"];
 0 [label="0 (0) - 1.000000"];
 4 -> 5 [label="0.000000" path="3 -> 4" color="blue"];
 2 -> 3 [label="0.000000" path="2 -> 5" color="blue"];
 2 -> 5 [label="0.000000" path="2 -> 4" color="blue"];
 5 -> 1 [label="58.000000" path="4 -> 1"];
 4 -> 1 [label="13.000000" path="3 -> 1"];
 3 -> 5 [label="50.000000" path="5 -> 4"];
 2 -> 4 [label="23.000000" path="2 -> 3"];
 0 -> 3 [label="29.000000" path="0 -> 5"];
 0 -> 2 [label="35.000000" path="0 -> 2"];
 0 -> 1 [label="25.000000" path="0 -> 1"];
}
