Warning: minimum memory will be computed through sp-ization, which only gives an upper bound!
optimal schedule:
0, 21, 28, 19, 20, 29, 14, 15, 8, 9, 10, 11, 12, 13, 26, 27, 22, 23, 24, 25, 1, 2, 3, 4, 5, 6, 16, 17, 18, 7
Peak memory: 371.000000
