DiGraph G {
 31 [label="SYNC_1_0 (31) - 0.000000"];
 30 [label="SYNC_0_0 (30) - 0.000000"];
 0 [label="0 (0) - 1.000000"];
 1 [label="1 (1) - 1.000000"];
 2 [label="8 (2) - 1.000000"];
 3 [label="14 (3) - 1.000000"];
 4 [label="19 (4) - 1.000000"];
 5 [label="21 (5) - 1.000000"];
 6 [label="26 (6) - 1.000000"];
 7 [label="28 (7) - 1.000000"];
 8 [label="2 (8) - 1.000000"];
 9 [label="3 (9) - 1.000000"];
 10 [label="4 (10) - 1.000000"];
 11 [label="5 (11) - 1.000000"];
 12 [label="6 (12) - 1.000000"];
 13 [label="7 (13) - 1.000000"];
 14 [label="9 (14) - 1.000000"];
 15 [label="10 (15) - 1.000000"];
 16 [label="11 (16) - 1.000000"];
 17 [label="12 (17) - 1.000000"];
 18 [label="13 (18) - 1.000000"];
 19 [label="15 (19) - 1.000000"];
 20 [label="16 (20) - 1.000000"];
 21 [label="17 (21) - 1.000000"];
 22 [label="18 (22) - 1.000000"];
 23 [label="20 (23) - 1.000000"];
 24 [label="22 (24) - 1.000000"];
 25 [label="25 (25) - 1.000000"];
 26 [label="23 (26) - 1.000000"];
 27 [label="24 (27) - 1.000000"];
 28 [label="27 (28) - 1.000000"];
 29 [label="29 (29) - 1.000000"];
 31 -> 12 [label="76.000000" path="SYNC_1_0 -> 6"];
 11 -> 31 [label="76.000000" path="5 -> SYNC_1_0"];
 31 -> 18 [label="83.000000" path="SYNC_1_0 -> 13"];
 17 -> 31 [label="148.000000" path="12 -> SYNC_1_0"];
 31 -> 21 [label="109.000000" path="SYNC_1_0 -> 17"];
 20 -> 31 [label="44.000000" path="16 -> SYNC_1_0"];
 30 -> 9 [label="98.000000" path="SYNC_0_0 -> 3"];
 8 -> 30 [label="98.000000" path="2 -> SYNC_0_0"];
 1 -> 30 [label="65.000000" path="1 -> SYNC_0_0"];
 30 -> 15 [label="131.000000" path="SYNC_0_0 -> 10"];
 14 -> 30 [label="66.000000" path="9 -> SYNC_0_0"];
 0 -> 1 [label="36.000000" path="0 -> 1"];
 0 -> 2 [label="24.000000" path="0 -> 8"];
 0 -> 4 [label="72.000000" path="0 -> 19"];
 0 -> 5 [label="81.000000" path="0 -> 21"];
 0 -> 6 [label="25.000000" path="0 -> 26"];
 0 -> 7 [label="133.000000" path="0 -> 28"];
 1 -> 8 [label="64.000000" path="1 -> 2"];
 2 -> 14 [label="59.000000" path="8 -> 9"];
 3 -> 19 [label="85.000000" path="14 -> 15"];
 4 -> 23 [label="23.000000" path="19 -> 20"];
 5 -> 24 [label="63.000000" path="21 -> 22"];
 6 -> 28 [label="87.000000" path="26 -> 27"];
 7 -> 29 [label="98.000000" path="28 -> 29"];
 9 -> 10 [label="72.000000" path="3 -> 4"];
 10 -> 11 [label="73.000000" path="4 -> 5"];
 12 -> 13 [label="54.000000" path="6 -> 7"];
 15 -> 16 [label="66.000000" path="10 -> 11"];
 16 -> 17 [label="70.000000" path="11 -> 12"];
 18 -> 13 [label="15.000000" path="13 -> 7"];
 19 -> 20 [label="23.000000" path="15 -> 16"];
 21 -> 22 [label="70.000000" path="17 -> 18"];
 22 -> 13 [label="28.000000" path="18 -> 7"];
 23 -> 3 [label="48.000000" path="20 -> 14"];
 24 -> 26 [label="140.000000" path="22 -> 23"];
 25 -> 13 [label="23.000000" path="25 -> 7"];
 26 -> 27 [label="152.000000" path="23 -> 24"];
 27 -> 25 [label="94.000000" path="24 -> 25"];
 28 -> 24 [label="24.000000" path="27 -> 22"];
 29 -> 3 [label="151.000000" path="29 -> 14"];
}
