strict digraph "compose( ,  )" {
	0 -> 1	 [label=36,
		weight=36];
	0 -> 8	 [label=24,
		weight=24];
	0 -> 14	 [label=84,
		weight=84];
	0 -> 19	 [label=72,
		weight=72];
	0 -> 21	 [label=81,
		weight=81];
	0 -> 26	 [label=25,
		weight=25];
	0 -> 28	 [label=49,
		weight=49];
	1 -> 2	 [label=64,
		weight=64];
	2 -> 3	 [label=98,
		weight=98];
	3 -> 4	 [label=72,
		weight=72];
	4 -> 5	 [label=73,
		weight=73];
	5 -> 6	 [label=76,
		weight=76];
	6 -> 7	 [label=54,
		weight=54];
	8 -> 9	 [label=59,
		weight=59];
	9 -> 10	 [label=66,
		weight=66];
	10 -> 11	 [label=66,
		weight=66];
	11 -> 12	 [label=70,
		weight=70];
	12 -> 13	 [label=83,
		weight=83];
	13 -> 7	 [label=15,
		weight=15];
	14 -> 15	 [label=85,
		weight=85];
	15 -> 16	 [label=23,
		weight=23];
	16 -> 17	 [label=44,
		weight=44];
	17 -> 18	 [label=70,
		weight=70];
	18 -> 7	 [label=28,
		weight=28];
	19 -> 20	 [label=23,
		weight=23];
	20 -> 14	 [label=48,
		weight=48];
	21 -> 22	 [label=63,
		weight=63];
	22 -> 25	 [label=74,
		weight=74];
	22 -> 23	 [label=66,
		weight=66];
	23 -> 24	 [label=78,
		weight=78];
	24 -> 25	 [label=20,
		weight=20];
	25 -> 7	 [label=23,
		weight=23];
	26 -> 27	 [label=87,
		weight=87];
	27 -> 22	 [label=24,
		weight=24];
	28 -> 29	 [label=14,
		weight=14];
	29 -> 14	 [label=67,
		weight=67];
}
